Lightbridge - Predicting Credit Card Default Status
…
Preview of engineered training data

You can see that student was replaced by student_Yes with 0-1 encoding. What does it mean?

Code

rec_basic %>% 
  prep(log_change = T) %>% 
  bake(new_data = Default_train)

step_dummy (dummy_72FQt): 
 new (1): student_Yes
 removed (1): student

# A tibble: 7,500 × 4
   balance income default student_Yes
     <dbl>  <dbl> <fct>         <dbl>
 1    730. 44362. No                0
 2    817. 12106. No                1
 3   1074. 31767. No                0
 4    529. 35704. No                0
 5    786. 38463. No                0
 6    826. 24905. No                0
 7    809. 17600. No                1
 8   1161. 37469. No                0
 9      0  29275. No                0
10      0  21871. No                1
# … with 7,490 more rows
…
